…
Below is a table summarizing the number of items ordered from aisle. In
total, there are 134 aisles, with fresh vegetables and fresh fruits
holding the most items ordered by far.

``` r
instacart %>% 
  count(aisle) %>% 
  arrange(desc(n))
```

    ## # A tibble: 134 × 2
    ##    aisle                              n
    ##    <chr>                          <int>
    ##  1 fresh vegetables              150609
    ##  2 fresh fruits                  150473
    ##  3 packaged vegetables fruits     78493
    ##  4 yogurt                         55240
    ##  5 packaged cheese                41699
    ##  6 water seltzer sparkling water  36617
    ##  7 milk                           32644
    ##  8 chips pretzels                 31269
    ##  9 soy lactosefree                26240
    ## 10 bread                          23635
    ## # … with 124 more rows
…
  pivot_longer(
    activity_1:activity_1440,
    names_to="minute",
    names_prefix="activity_",
    values_to="activity count",
  ) %>%
    mutate(
      weekday_vs_weekend=ifelse(day %in% c("Saturday", "Sunday"), "weekend", "weekday"),
      day = fct_relevel(day,"Monday", "Tuesday", "Wednesday","Thursday","Friday", "Saturday", "Sunday"),
      minute=as.numeric(minute)
      )
accel_df
```

    ## # A tibble: 50,400 × 6
    ##     week day_id day    minute `activity count` weekday_vs_weekend
    ##    <dbl>  <dbl> <fct>   <dbl>            <dbl> <chr>             
    ##  1     1      1 Friday      1             88.4 weekday           
    ##  2     1      1 Friday      2             82.2 weekday           
    ##  3     1      1 Friday      3             64.4 weekday           
    ##  4     1      1 Friday      4             70.0 weekday           
    ##  5     1      1 Friday      5             75.0 weekday           
    ##  6     1      1 Friday      6             66.3 weekday           
    ##  7     1      1 Friday      7             53.8 weekday           
    ##  8     1      1 Friday      8             47.8 weekday           
    ##  9     1      1 Friday      9             55.5 weekday           
    ## 10     1      1 Friday     10             43.0 weekday           
    ## # … with 50,390 more rows
…
# Problem 3

### Load and explore

``` r
data("ny_noaa")
ny_noaa
```

    ## # A tibble: 2,595,176 × 7
    ##    id          date        prcp  snow  snwd tmax  tmin 
    ##    <chr>       <date>     <int> <int> <int> <chr> <chr>
    ##  1 US1NYAB0001 2007-11-01    NA    NA    NA <NA>  <NA> 
    ##  2 US1NYAB0001 2007-11-02    NA    NA    NA <NA>  <NA> 
    ##  3 US1NYAB0001 2007-11-03    NA    NA    NA <NA>  <NA> 
    ##  4 US1NYAB0001 2007-11-04    NA    NA    NA <NA>  <NA> 
    ##  5 US1NYAB0001 2007-11-05    NA    NA    NA <NA>  <NA> 
    ##  6 US1NYAB0001 2007-11-06    NA    NA    NA <NA>  <NA> 
    ##  7 US1NYAB0001 2007-11-07    NA    NA    NA <NA>  <NA> 
    ##  8 US1NYAB0001 2007-11-08    NA    NA    NA <NA>  <NA> 
    ##  9 US1NYAB0001 2007-11-09    NA    NA    NA <NA>  <NA> 
    ## 10 US1NYAB0001 2007-11-10    NA    NA    NA <NA>  <NA> 
    ## # … with 2,595,166 more rows
…
``` r
noaa_df=ny_noaa %>% 
  janitor::clean_names() %>% 
  separate(date,into = c("year","month","day")) %>%
  mutate(year=as.integer(year),
         month=month.name[as.numeric(month)],
         day=as.numeric(day),
         prcp=as.numeric(prcp)/10,
         tmax=as.numeric(tmax)/10,
         tmin=as.numeric(tmin)/10)
noaa_df
```

    ## # A tibble: 2,595,176 × 9
    ##    id           year month      day  prcp  snow  snwd  tmax  tmin
    ##    <chr>       <int> <chr>    <dbl> <dbl> <int> <int> <dbl> <dbl>
    ##  1 US1NYAB0001  2007 November     1    NA    NA    NA    NA    NA
    ##  2 US1NYAB0001  2007 November     2    NA    NA    NA    NA    NA
    ##  3 US1NYAB0001  2007 November     3    NA    NA    NA    NA    NA
    ##  4 US1NYAB0001  2007 November     4    NA    NA    NA    NA    NA
    ##  5 US1NYAB0001  2007 November     5    NA    NA    NA    NA    NA
    ##  6 US1NYAB0001  2007 November     6    NA    NA    NA    NA    NA
    ##  7 US1NYAB0001  2007 November     7    NA    NA    NA    NA    NA
    ##  8 US1NYAB0001  2007 November     8    NA    NA    NA    NA    NA
    ##  9 US1NYAB0001  2007 November     9    NA    NA    NA    NA    NA
    ## 10 US1NYAB0001  2007 November    10    NA    NA    NA    NA    NA
    ## # … with 2,595,166 more rows

### Snowfalls

``` r
noaa_df %>% 
  janitor::clean_names() %>% 
  group_by(snow) %>%
  summarize(observed_value=n()) %>% 
  arrange(desc(observed_value))
```

    ## # A tibble: 282 × 2
    ##     snow observed_value
    ##    <int>          <int>
    ##  1     0        2008508
    ##  2    NA         381221
    ##  3    25          31022
    ##  4    13          23095
    ##  5    51          18274
    ##  6    76          10173
    ##  7     8           9962
    ##  8     5           9748
    ##  9    38           9197
    ## 10     3           8790
    ## # … with 272 more rows
…
